/media/damlunx/Data1/arbeit/R/symconivol/README.md • symconivol
…
See the corresponding section in the accompanying vignette for more details.

A more precise estimate of the rank probabilities of the solution of a random SDP is provided through the function SDP_rnk_pred:

SP <- SDP_rnk_pred(30,150)

print(SP$P)
#> # A tibble: 31 x 2
#>     `k=` `Prob(rk_sol=k)=`
#>    <int>             <dbl>
#>  1     0          0.      
#>  2     1          0.      
#>  3     2          0.      
#>  4     3          0.      
#>  5     4          0.      
#>  6     5          0.      
#>  7     6          9.45e-33
#>  8     7          7.99e-19
#>  9     8          4.09e-10
#> 10     9          9.50e- 5
#> # ... with 21 more rows
…
