Predict the rank of the solution of a semidefinite program — SDP_rnk_pred • symconivol
…
    Examples

library(tidyverse)
#> ── Attaching packages ─────────────────────────────────────── tidyverse 1.2.1 ──
#> ✔ ggplot2 2.2.1     ✔ purrr   0.2.4
#> ✔ tibble  1.4.2     ✔ dplyr   0.7.4
#> ✔ tidyr   0.7.2     ✔ stringr 1.3.0
#> ✔ readr   1.1.1     ✔ forcats 0.2.0
#> ── Conflicts ────────────────────────────────────────── tidyverse_conflicts() ──
#> ✖ dplyr::filter() masks stats::filter()
#> ✖ dplyr::lag()    masks stats::lag()
SP <- SDP_rnk_pred(30,150)

print(SP$P)
#> # A tibble: 31 x 2
#>     `k=` `Prob(rk_sol=k)=`
#>    <int>             <dbl>
#>  1     0          0.      
#>  2     1          0.      
#>  3     2          0.      
#>  4     3          0.      
#>  5     4          0.      
#>  6     5          0.      
#>  7     6          9.45e-33
#>  8     7          7.99e-19
#>  9     8          4.09e-10
#> 10     9          9.50e- 5
#> # ... with 21 more rows
…
